{
  "menu": [
    {
      "id": "spatial",
      "display": "Spatial Analysis",
      "children": [
        {
          "id": "qvast",
          "display": "QVast"
        }
      ]
    },
    {
      "id": "hasset",
      "display": "Temporal Analysis",
      "children": [
        {
          "id": "hasset",
          "display": "Hasset LT"
        },
        {
          "id": "hasset-st",
          "display": "Hasset ST"
        }
      ]
    },
    {
      "id": "lava",
      "display": "Simulation Models",
      "children": [
        {
          "id": "lava",
          "display": "Lava",
          "children": [
            {
              "id": "qlavha",
              "display": "Q-LavHA"
            }
          ]
        },
        {
          "id": "ashfall",
          "display": "Ash fall",
          "children": [
            {
              "id": "fall3d",
              "display": "Fall3D"
            },
            {
              "id": "hazmap",
              "display": "HazMap"
            }
          ]
        },
        {
          "id": "pdc",
          "display": "PDC",
          "children": [
            {
              "id": "surge",
              "display": "VORIS PDC (Surge)"
            }
          ]
        },
        {
          "id": "laharz",
          "display": "Laharz",
          "children": [
            {
              "id": "laharzPlugin",
              "display": "Laharz"
            }
          ]
        },
        {
          "id": "others",
          "display": "Others",
          "children": [
            {
              "id": "sismicityPlugin",
              "display": "Sismicity"
            },
            {
              "id": "landslides",
              "display": "Landslide"
            }
          ]
        }
      ]
    },
    {
      "id": "cost-benefits",
      "display": "Risk analisis",
      "children": [
        {
          "id": "cost-benefits",
          "display": "Cost Benefits",
          "children": [
            {
              "id": "bademo",
              "display": "Bademo"
            }
          ]
        }
      ]
    },
    {
      "id": "vulnerability",
      "display": "Vulnerability",
      "children": [
        {
          "id": "volcdam",
          "display": "Volcdam"
        }
      ]
    },
    {
      "id": "doc",
      "display": "Documentation",
      "children": [
        {
          "id": "tutorials",
          "display": "Tutorials"
        },
        {
          "id": "manuals",
          "display": "Manuals"
        },
        {
          "id": "references",
          "display": "References"
        },
        {
          "id": "credits",
          "display": "Credits"
        }
      ]
    }
  ]
}